Multivariate Project
…
We can use the function ols_step_all_possible() to do this in the olsrr library. This will return a dataframe of all the model results with a variety of comparison methods including AIC.

library(olsrr)

## 
## Attaching package: 'olsrr'

## The following object is masked from 'package:datasets':
## 
##     rivers

compare_models <- ols_step_all_possible(fit)
compare_models

## # A tibble: 255 x 6
##    Index     N Predictors          `R-Square` `Adj. R-Square` `Mallow's Cp`
##    <int> <int> <chr>                    <dbl>           <dbl>         <dbl>
##  1     1     1 shell.weight             0.444           0.444         1604.
##  2     2     1 height                   0.428           0.427         1771.
##  3     3     1 diameter                 0.400           0.400         2048.
##  4     4     1 length                   0.378           0.378         2264.
##  5     5     1 whole.weight             0.343           0.343         2608.
##  6     6     1 viscera.weight           0.315           0.315         2887.
##  7     7     1 sex                      0.239           0.238         3649.
##  8     8     1 shucked.weight           0.231           0.231         3726.
##  9     9     2 shucked.weight she      0.528           0.528          777.
## 10    10     2 whole.weight shuck      0.521           0.520          850.
## #  with 245 more rows
…
